1 10 20
100 200 125
201 210 89
900 1000 174
10 1 20
4000 5000 215
60000 80000 351
1 1000 179
300 400 144
500 600 137
700 800 171
900 1000 179
12000 14000 276
2 5 8
10 20 21
20 30 112
30 40 107
40 50 110
50 60 113
60 70 108
70 80 116
80 90 111
90 100 119
1234 4321 238
3010 4000 238
3020 4000 238
3030 4000 238
3040 4000 238
3050 4000 238
3060 4000 238
3070 4000 238
3080 4000 238
3090 4000 238
10000 110000 268
9000 10000 260
8000 9000 247
7000 8000 252
6000 7000 262
5000 6000 236
5000 10000 262
20000 30000 308
21000 33000 308
1500 3000 217
2000 4000 238
2500 5000 238
3000 6000 238
3500 7000 262
4000 8000 262
4500 9000 262
5000 10000 262
5500 11000 268
6000 12000 268
6500 13000 268
7000 14000 276
7500 15000 276
8000 16000 276
8500 17000 276
9000 18000 279
9500 19000 279
10000 20000 279



