.......
----------------------------------------------------------------------
Ran 16 tests in 0.346s
OK
Name             Stmts   Miss Branch BrPart  Cover   Missing
------------------------------------------------------------
Collatz.py          33      0      2      0   100%
TestCollatz.py      74      0      0      0   100%
------------------------------------------------------------
TOTAL              107      0      2      0   100%