............
----------------------------------------------------------------------
Ran 12 tests in 1.031s

OK
Name             Stmts   Miss Branch BrPart  Cover   Missing
------------------------------------------------------------
Collatz.py          37      0     20      0   100%
TestCollatz.py      53      0      0      0   100%
------------------------------------------------------------
TOTAL               90      0     20      0   100%
